…
separate()
==========

takes a single column and splits it into two based on some text character


```r
gAstrag %>% 
  select(individual, Taxon) %>%
  separate(Taxon, into = c("genus", "species"), sep = "_")
```

```
# A tibble: 2,618 x 3
   individual      genus    species
*      <fctr>      <chr>      <chr>
1   AMNH81690  Aepyceros   melampus
2   AMNH82050  Aepyceros   melampus
3   AMNH83534  Aepyceros   melampus
4   AMNH85150  Aepyceros   melampus
5  AMNH233038 Alcelaphus buselaphus
6   AMNH34717 Alcelaphus buselaphus
7   AMNH34725 Alcelaphus buselaphus
8   AMNH82033 Alcelaphus buselaphus
9   AMNH82159 Alcelaphus buselaphus
10  AMNH88406  Beatragus    hunteri
# ... with 2,608 more rows
```
…
