Homework #2 - Solution
…
points possible

1pt means

2pts figure

Part a

library(dplyr)
crania %>% 
  group_by(Population, Sex) %>%
  summarise(meanGOL = mean(GOL), meanXCB = mean(XCB), meanZYB=mean(ZYB), meanSIS = mean(SIS))

## # A tibble: 56 x 6
## # Groups:   Population [?]
##    Population Sex   meanGOL meanXCB meanZYB meanSIS
##    <fct>      <fct>   <dbl>   <dbl>   <dbl>   <dbl>
##  1 AINU       F        179.    137.    128.    2.78
##  2 AINU       M        190.    143.    139.    3.65
##  3 ANDAMAN    F        160.    131.    118.    2.17
##  4 ANDAMAN    M        169.    136.    124.    2.33
##  5 ANYANG     M        181     139.    136.    2.37
##  6 ARIKARA    F        171.    136.    131.    3.47
##  7 ARIKARA    M        179.    142.    141.    4.25
##  8 ATAYAL     F        168.    132.    124.    2.43
##  9 ATAYAL     M        177.    136.    133.    2.85
## 10 AUSTRALI   F        181.    128.    126.    3.47
## # ... with 46 more rows
…
