Homework #2 - Solution
…
## The following objects are masked from 'package:stats':
## 
##     filter, lag

## The following objects are masked from 'package:base':
## 
##     intersect, setdiff, setequal, union

crania %>% 
  group_by(Population, Sex) %>%
  summarise(meanGOL = mean(GOL), meanXCB = mean(XCB), meanZYB=mean(ZYB), meanSIS = mean(SIS))

## Source: local data frame [56 x 6]
## Groups: Population [?]
## 
##    Population    Sex  meanGOL  meanXCB  meanZYB  meanSIS
##        <fctr> <fctr>    <dbl>    <dbl>    <dbl>    <dbl>
## 1        AINU      F 178.7368 137.1053 128.2368 2.778947
## 2        AINU      M 189.9792 142.9583 138.9375 3.650000
## 3     ANDAMAN      F 160.1143 131.0857 117.6000 2.174286
## 4     ANDAMAN      M 168.8571 135.6571 123.8286 2.334286
## 5      ANYANG      M 181.0000 138.7857 135.9524 2.369048
## 6     ARIKARA      F 171.1111 136.4815 130.6667 3.470370
## 7     ARIKARA      M 179.4762 141.5476 140.8810 4.247619
## 8      ATAYAL      F 168.1111 131.8889 124.2222 2.427778
## 9      ATAYAL      M 177.0345 135.7586 133.0690 2.851724
## 10   AUSTRALI      F 181.1020 127.5102 125.7755 3.467347
## # ... with 46 more rows
…
